Analyzing Korean Odyssey Live Streaming Articles on PTT
…
article_Korean_Odyssey_push = tibble()
for(i in 1:22) {
  article_Korean_Odyssey_push <- article_Korean_Odyssey[[i]]$push %>%
    mutate(article = i) %>% rbind(article_Korean_Odyssey_push)
}

Originally I have main content and tweet(push) content. Since live streaming articles main content is the introduction of the drama, there is no needed to preserve it. Thus, here I only analyze tweet(push) content. However, it is important to crawl main content since main content of other articles such as drama review are important. The design of crarwler shold preserve it for further use.

Descriptive statistics: Visualize time distribution of tweets each article.

article_descriptive <- select(article_Korean_Odyssey_push, article, date, time, month, day, hour, minute)
article_descriptive <- as_tibble(article_descriptive)
article_descriptive

## # A tibble: 11,563 x 7
##    article date       time   month   day  hour minute
##      <int> <date>     <time> <dbl> <int> <int>  <int>
##  1      22 2018-03-04 19:44   3.00     4    19     44
##  2      22 2018-03-04 19:44   3.00     4    19     44
##  3      22 2018-03-04 19:45   3.00     4    19     45
##  4      22 2018-03-04 19:46   3.00     4    19     46
##  5      22 2018-03-04 19:46   3.00     4    19     46
##  6      22 2018-03-04 19:47   3.00     4    19     47
##  7      22 2018-03-04 19:48   3.00     4    19     48
##  8      22 2018-03-04 19:49   3.00     4    19     49
##  9      22 2018-03-04 19:49   3.00     4    19     49
## 10      22 2018-03-04 19:50   3.00     4    19     50
## # ... with 11,553 more rows
…
Term frequency: Get the high frequency terms overall.

tidy_KO_jtu %>%
  anti_join(stop_words_chinese2, by = "word") %>%
  mutate(word = factor(word, levels = rev(unique(word)))) %>%
  count(word, sort = T) %>%
  mutate(word = reorder(word, n)) %>%
  ungroup() %>%
  top_n(30)

## # A tibble: 31 x 2
##    word      n
##    <fct> <int>
##  1    1275
##  2     904
##  3     755
##  4     547
##  5     514
##  6       467
##  7 50      425
##  8     296
##  9       275
## 10     267
## # ... with 21 more rows
…
tidy_KO_jiebar2_count <- tidy_KO_jiebar2_tibble %>% group_by(article) %>%
  count(article, word, sort = T) %>%
  ungroup()
tidy_KO_tfidf <- tidy_KO_jiebar2_count %>%
  bind_tf_idf(word, article, n)
# preseve the top 30
tidy_KO_tfidf %>%
  arrange(desc(tf_idf)) %>%
  mutate(word = factor(word, levels = rev(unique(word)))) %>%
  mutate(word = reorder(word, tf_idf)) %>%
  top_n(30) %>%
  ungroup

## # A tibble: 30 x 6
##    article word         n      tf   idf tf_idf
##      <int> <fct>    <int>   <dbl> <dbl>  <dbl>
##  1       3 NG          11 0.00842 3.09  0.0260
##  2       6      7 0.00511 3.09  0.0158
##  3       5          8 0.00509 3.09  0.0157
##  4       4      8 0.00485 3.09  0.0150
##  5      14         77 0.0209  0.693 0.0145
##  6      16         64 0.0197  0.693 0.0137
##  7      21         56 0.00559 2.40  0.0134
##  8       7       11 0.00537 2.40  0.0129
##  9       2         16 0.00748 1.70  0.0128
## 10       3        5 0.00383 3.09  0.0118
## # ... with 20 more rows
…
It is quite clear that there are not differences between two topics. We can say that tweets of 22 article dont have big differences.

Topic modeling check: Double check whethere there are differnces between two topics.

gawy_documents <- tidy(gawy_lda, matrix = "gamma")
gawy_documents %>%
  filter(gamma >= 0.1)

## # A tibble: 23 x 3
##    document topic gamma
##    <chr>    <int> <dbl>
##  1 21           1 1.000
##  2 22           1 1.000
##  3 9            1 1.000
##  4 11           1 1.000
##  5 10           1 0.267
##  6 8            1 1.000
##  7 7            1 1.000
##  8 6            1 1.000
##  9 4            1 1.000
## 10 5            1 1.000
## # ... with 13 more rows
…
