Association Rules Practice
…
glimpse(df)

## Observations: 260
## Variables: 3
## $ member_ID <chr> "1.61905E+12", "1.67903E+12", "1.63404E+12", "1.6560...
## $ date      <date> 2012-10-22, 2010-10-03, 2011-07-07, 2010-03-13, 201...
## $ item      <chr> "citrus fruit", "tropical fruit", "whole milk", "pip...

There are three columns of this grocery data, which are member_ID, date, and items bought. Each observation contains an item only, so if a customer buy 5 items in the same time, it will account for 5 observations. Now I am goint to use group_by to check the real number of transaction.

df %>% group_by(member_ID, date) %>%
  count(sort = T)

## # A tibble: 199 x 3
## # Groups:   member_ID, date [199]
##    member_ID   date           n
##    <chr>       <date>     <int>
##  1 1.61607E+12 2012-12-30     7
##  2 1.61201E+12 2013-09-07     6
##  3 1.69201E+12 2011-01-30     6
##  4 1.60604E+12 2010-08-19     4
##  5 1.61103E+12 2012-12-03     4
##  6 1.61708E+12 2014-11-23     4
##  7 1.62604E+12 2010-01-17     4
##  8 1.62609E+12 2010-07-20     4
##  9 1.63005E+12 2012-10-22     4
## 10 1.65111E+12 2013-11-15     4
## # ... with 189 more rows
…
